{
  "Universo" : "League Of Legends",
  "Región" : "Grieta del invocador",
  "active" : true,
  "campeones" : [
    {
      "nombre" : "Ashe",
      "urlImagen":"ashe.png",
      "Danio" : 111.3,
      "Rol" : "Tirador",
      "Habilidades" : [
        "Concentración de la Guardabosques",
        "Descarga",
        "Tiro de Halcón",
        "Flecha de Cristal Encantada"
      ]
    },
    {
      "nombre" : "Fiddlesticks",
      "urlImagen":"Fiddlesticks.png",
      "Danio" : 93,
      "Rol" : "Mago",
      "Habilidades" : [
        "Aterrorizar",
        "Drenar",
        "Viento Siniestro",
        "Tormenta de Cuervos"
      ]
    },
    {
      "nombre" : "Heimerdinger",
      "urlImagen":"Heimerdinger.png",
      "Danio" : 101.4,
      "Rol" : "Mago",
      "Habilidades" : [
        "Torreta Evolutiva H-28 G",
        "Microcohetes Hextech",
        "Granada de Tormenta de Electrones CH-2",
        "Torreta de Élite H-28Q / Enjambre de Cohetes Hextech / Granada de Relámpagos CH-3X"
      ]
    },
        {
          "nombre" : "Maokai",
          "urlImagen":"Maokai.png",
          "Danio" : 119.6,
          "Rol" : "Tanque",
          "Habilidades" : [
            "Aplastamiento Espinoso",
            "Avance Retorcido",
            "Lanzamiento de Retoño",
            "Agarre de la Naturaleza"
          ]
        },
        {
          "nombre" : "Mordekaiser",
          "urlImagen":"Mordekaiser.png",
          "Danio" : 129,
          "Rol" : "Peleador",
          "Habilidades" : [
            "Aniquilación",
            "Indestructible",
            "Garra del Inframundo",
            "Reino de la Muerte"
          ]
        },
        {
          "nombre" : "Sona",
          "urlImagen":"Sona.png",
          "Danio" : 100,
          "Rol" : "Soporte",
          "Habilidades" : [
            "Himno del Valor",
            "Aria de la Perseverancia",
            "Canción de la Celeridad",
            "Crescendo"
          ]
        }
      ]
}
